[
  {
    "name": "The Starry Night",
    "medium": "Oil paint",
    "movement": "Post-Impressionism",
    "cost": "$100 Million",
    "creationDate": "1889",
    "artist_name": "Vincent van Gogh",
    "artist_id": "64",
    "museum_name": "The Museum of Modern Art",
    "museum_id": "250",
    "image": "https://upload.wikimedia.org/wikipedia/commons/thumb/e/ea/Van_Gogh_-_Starry_Night_-_Google_Art_Project.jpg/1024px-Van_Gogh_-_Starry_Night_-_Google_Art_Project.jpg",
    "id": "12"
  },
  {
    "name": "Mona Lisa",
    "medium": "Oil paint",
    "movement": "Renaissance",
    "cost": "$850 Million",
    "creationDate": "1503",
    "artist_name": "Leonardo da Vinci",
    "artist_id": "476",
    "museum_name": "Louvre Museum",
    "museum_id": "1",
    "image": "https://upload.wikimedia.org/wikipedia/commons/thumb/e/ec/Mona_Lisa%2C_by_Leonardo_da_Vinci%2C_from_C2RMF_retouched.jpg/450px-Mona_Lisa%2C_by_Leonardo_da_Vinci%2C_from_C2RMF_retouched.jpg",
    "id": "14"
  },
  {
    "name": "Guernica",
    "medium": "Oil on canvas",
    "movement": "Cubism, Surrealism",
    "cost": "200M",
    "creationDate": "1937",
    "artist_name": "Pablo Picasso",
    "artist_id": "789",
    "museum_name": "Museo Nacional Centro de Arte Reina Sofía",
    "museum_id": "30",
    "image": "https://upload.wikimedia.org/wikipedia/en/7/74/PicassoGuernica.jpg",
    "id": "872"
  }
]